[{
    "properties":
    [{
        "properties":
        {
            "distribution":"uniform",
            "domain":["test"],
            "min":4,
            "max":4,
            "source":"domain"
        },
        "propertyName":"simple",
        "type":"string"
    }],
    "type":"object",
    "typeName":"ROOT"
}]
