[{
    "properties": {
        "distribution": "uniform",
        "domain": [2, 3],
        "innerType": [{
            "properties": [{
                "properties": {
                    "distribution": "uniform",
                    "domain": [1, 3, 1, 3, 5],
                    "max": 5,
                    "min": 1,
                    "source": "domain"
                },
                "propertyName": "fileSeq1",
                "type": "int"
            }, {
                "properties": {
                    "distribution": "uniform",
                    "domain": [1.2, 1.4, 2.2, 2.4 , 2],
                    "max": 2.4,
                    "min": 1.2,
                    "source": "domain"
                },
                "propertyName": "fileSeq2",
                "type": "float"
            }, {
                "properties": {
                    "distribution": "uniform",
                    "domain": [7, 9, 1, 3, 5],
                    "max": 9,
                    "min": 1,
                    "source": "domain"
                },
                "propertyName": "globalSeq1",
                "type": "int"
            }, {
                "properties": {
                    "distribution": "uniform",
                    "domain": [8, 10, 2, 4, 6],
                    "max": 10,
                    "min": 2,
                    "source": "domain"
                },
                "propertyName": "globalSeq2",
                "type": "int"
            }, {
                "properties": {
                    "distribution": "uniform",
                    "domain": [1, 1, 1, 1, 1],
                    "max": 1,
                    "min": 1,
                    "source": "domain"
                },
                "propertyName": "scopeSeq1",
                "type": "int"
            }, {
                "properties": {
                    "distribution": "uniform",
                    "domain": [2, 2, 2, 2, 2],
                    "max": 2,
                    "min": 2,
                    "source": "domain"
                },
                "propertyName": "scopeSeq2",
                "type": "int"
            }],
            "required": ["fileSeq1", "fileSeq2", "globalSeq1", "globalSeq2", "scopeSeq1", "scopeSeq2"],
            "type": "object"
        }],
        "max": 3,
        "min": 2,
        "source": "domain"
    },
    "type": "array",
    "typeName": "ROOT"
}]
